PROJECT NAME : Taxi2u


============WP-ADMIN ACCESS============================

USERANAME : 

PASSWORD: 


================TEST SERVER1 ACCESS DETAILS====================

====================DATABASE ACCESS============================

DATABASE : atestme6_taxi2u

USERNAME : atestme6_taxi_us

PASSWORD : )fV5#PrZ!}Z^


================TEST SERVER1==============================


cPanel URL  
http://test1.ablionit.com/cpanel
Username : atestme6
Password : IKRxoo:k2*IZ


================ablionit SERVER==============================


cPanel URL  
http://ablionit.com:2082/
Username : abliojbw
Password : abCD#@12


================LIVE ablionit SERVER ACCESS DETAILS====================

====================DATABASE ACCESS============================

DATABASE : abliojbw_taxi2u

USERNAME : abliojbw_taxi_us

PASSWORD : feDO[S-zF(c?

================LIVE SERVER==============================


cPanel URL

Username -   
Password -   

=====================Email Account=======================
Password :-  

Email  :-  

============WP-Client ADMIN ACCESS============================

USERANAME : 

PASSWORD: 



SELECT *, ( 6371 * acos( cos( radians(23.232422) ) * cos( radians( latitude ) ) * cos( radians( longitude ) - radians(87.861481) ) + sin( radians(23.232422) ) * sin( radians( latitude ) ) ) ) AS distance FROM tbl_driver WHERE car_type=3 HAVING distance < 15 ORDER BY distance LIMIT 10