"first name","last name",city,phone,phone1,phone2,"Station number","user type"
fgbgb,rrr,6,77888894414,ghgyhg,ddd,6005,"New User"
er,dfg,19,04-9988776,,,6005,"New User"
יום-טוב,זלוטניק,688,0502455033,,,6005,"New User"
